[gd_scene load_steps=2 format=2]

[ext_resource path="res://img_resource/ui/main_ui.png" type="Texture" id=1]

[node name="Node" type="Node"]

[node name="main_ui" type="Sprite" parent="."]
position = Vector2( 556.894, 316.011 )
texture = ExtResource( 1 )
